{
    "name": "Fantomask",
    "theme": "Réseaux",
    "type": "C",
    "description": "Affiche l'adresse fournie en mode réseau ou broadcast en fonction du masque de sous-réseau",
    "date": 2017
}
